…
``` r
ibt %>%
  select(serial_num, wind) %>%
  group_by(serial_num) %>%
  mutate(max_speed = max(wind)) %>%
  select(serial_num, max_speed) %>%
  distinct() %>%
  arrange(desc(max_speed))
```

    ## # A tibble: 541 x 2
    ## # Groups:   serial_num [541]
    ##    serial_num    max_speed
    ##    <chr>             <dbl>
    ##  1 2015293N13266       185
    ##  2 2010169N13266       140
    ##  3 2014234N12261       140
    ##  4 2010251N14337       135
    ##  5 2011199N10271       135
    ##  6 2014142N10254       135
    ##  7 2015066S08170       135
    ##  8 2015238N10255       135
    ##  9 2015270N27291       135
    ## 10 2014160N15259       130
    ## # … with 531 more rows
…
